test/decode_test/FULL_1D_DECODER.vcd
$date
     Jun 23, 2022       12:27:39
$end

$version
 SystemC 2.3.3-Accellera --- Jun  9 2021 01:08:02
$end

$timescale
     1 ns
$end

$scope module SystemC $end
$var wire    1  aaaaa  clk       $end
$var wire    1  aaaab  reset       $end
$scope module DUT_decode_full $end
$scope module u_block_buffer $end
$var wire   64  aaafc  s_block0 [63:0]  $end
$var wire   64  aaafd  s_block1 [63:0]  $end
$var wire   64  aaafe  s_block2 [63:0]  $end
$var wire   64  aaaff  s_block3 [63:0]  $end
$var wire    1  aaafg  s_valid       $end
$var wire    1  aaafh  s_ready       $end
$var wire   64  aaafi  m_block0 [63:0]  $end
$var wire   64  aaafj  m_block1 [63:0]  $end
$var wire   64  aaafk  m_block2 [63:0]  $end
$var wire   64  aaafl  m_block3 [63:0]  $end
$var wire    1  aaafm  m_valid       $end
$var wire    1  aaafn  m_ready       $end
$upscope $end
$scope module u_cast_buffer $end
$var wire   64  aaago  s_block0 [63:0]  $end
$var wire   64  aaagp  s_block1 [63:0]  $end
$var wire   64  aaagq  s_block2 [63:0]  $end
$var wire   64  aaagr  s_block3 [63:0]  $end
$var wire    1  aaags  s_valid       $end
$var wire    1  aaagt  s_ready       $end
$var wire   64  aaagu  m_block0 [63:0]  $end
$var wire   64  aaagv  m_block1 [63:0]  $end
$var wire   64  aaagw  m_block2 [63:0]  $end
$var wire   64  aaagx  m_block3 [63:0]  $end
$var wire    1  aaagy  m_valid       $end
$var wire    1  aaagz  m_ready       $end
$upscope $end
$scope module u_decode_block $end
$var wire   64  aaafo  s_block0 [63:0]  $end
$var wire   64  aaafp  s_block1 [63:0]  $end
$var wire   64  aaafq  s_block2 [63:0]  $end
$var wire   64  aaafr  s_block3 [63:0]  $end
$var wire    1  aaafs  s_valid       $end
$var wire    1  aaaft  s_ready       $end
$var wire   64  aaafu  m_block0 [63:0]  $end
$var wire   64  aaafv  m_block1 [63:0]  $end
$var wire   64  aaafw  m_block2 [63:0]  $end
$var wire   64  aaafx  m_block3 [63:0]  $end
$var wire    1  aaafy  m_valid       $end
$var wire    1  aaafz  m_ready       $end
$var wire    1  aaaga  c_xt_valid       $end
$scope module u_xt $end
$var wire   64  aaagb  s_port0 [63:0]  $end
$var wire   64  aaagc  s_port1 [63:0]  $end
$var wire   64  aaagd  s_port2 [63:0]  $end
$var wire   64  aaage  s_port3 [63:0]  $end
$var wire    1  aaagf  s_valid       $end
$var wire    1  aaagg  s_ready       $end
$var wire   64  aaagh  m_port0 [63:0]  $end
$var wire   64  aaagi  m_port1 [63:0]  $end
$var wire   64  aaagj  m_port2 [63:0]  $end
$var wire   64  aaagk  m_port3 [63:0]  $end
$var wire    1  aaagl  m_valid       $end
$var wire    1  aaagm  m_ready       $end
$var wire    6  aaagn  v [5:0]  $end
$upscope $end
$upscope $end
$scope module u_decode_ints $end
$var wire    6  aaacj  k [5:0]  $end
$var wire   16  aaack  kmin [15:0]  $end
$var wire    3  aaacl  n [2:0]  $end
$var wire    8  aaacm  stream_window [7:0]  $end
$var wire   32  aaacn  bits [31:0]  $end
$var wire   32  aaaco  bitoff [31:0]  $end
$var wire   64  aaacp  x [63:0]  $end
$scope module c_bplane $end
$var wire    4  aaacq  0 [3:0]  $end
$var wire    4  aaacr  1 [3:0]  $end
$var wire    4  aaacs  2 [3:0]  $end
$var wire    4  aaact  3 [3:0]  $end
$var wire    4  aaacu  4 [3:0]  $end
$var wire    4  aaacv  5 [3:0]  $end
$var wire    4  aaacw  6 [3:0]  $end
$var wire    4  aaacx  7 [3:0]  $end
$var wire    4  aaacy  8 [3:0]  $end
$var wire    4  aaacz  9 [3:0]  $end
$var wire    4  aaada  10 [3:0]  $end
$var wire    4  aaadb  11 [3:0]  $end
$var wire    4  aaadc  12 [3:0]  $end
$var wire    4  aaadd  13 [3:0]  $end
$var wire    4  aaade  14 [3:0]  $end
$var wire    4  aaadf  15 [3:0]  $end
$var wire    4  aaadg  16 [3:0]  $end
$var wire    4  aaadh  17 [3:0]  $end
$var wire    4  aaadi  18 [3:0]  $end
$var wire    4  aaadj  19 [3:0]  $end
$var wire    4  aaadk  20 [3:0]  $end
$var wire    4  aaadl  21 [3:0]  $end
$var wire    4  aaadm  22 [3:0]  $end
$var wire    4  aaadn  23 [3:0]  $end
$var wire    4  aaado  24 [3:0]  $end
$var wire    4  aaadp  25 [3:0]  $end
$var wire    4  aaadq  26 [3:0]  $end
$var wire    4  aaadr  27 [3:0]  $end
$var wire    4  aaads  28 [3:0]  $end
$var wire    4  aaadt  29 [3:0]  $end
$var wire    4  aaadu  30 [3:0]  $end
$var wire    4  aaadv  31 [3:0]  $end
$var wire    4  aaadw  32 [3:0]  $end
$var wire    4  aaadx  33 [3:0]  $end
$var wire    4  aaady  34 [3:0]  $end
$var wire    4  aaadz  35 [3:0]  $end
$var wire    4  aaaea  36 [3:0]  $end
$var wire    4  aaaeb  37 [3:0]  $end
$var wire    4  aaaec  38 [3:0]  $end
$var wire    4  aaaed  39 [3:0]  $end
$var wire    4  aaaee  40 [3:0]  $end
$var wire    4  aaaef  41 [3:0]  $end
$var wire    4  aaaeg  42 [3:0]  $end
$var wire    4  aaaeh  43 [3:0]  $end
$var wire    4  aaaei  44 [3:0]  $end
$var wire    4  aaaej  45 [3:0]  $end
$var wire    4  aaaek  46 [3:0]  $end
$var wire    4  aaael  47 [3:0]  $end
$var wire    4  aaaem  48 [3:0]  $end
$var wire    4  aaaen  49 [3:0]  $end
$var wire    4  aaaeo  50 [3:0]  $end
$var wire    4  aaaep  51 [3:0]  $end
$var wire    4  aaaeq  52 [3:0]  $end
$var wire    4  aaaer  53 [3:0]  $end
$var wire    4  aaaes  54 [3:0]  $end
$var wire    4  aaaet  55 [3:0]  $end
$var wire    4  aaaeu  56 [3:0]  $end
$var wire    4  aaaev  57 [3:0]  $end
$var wire    4  aaaew  58 [3:0]  $end
$var wire    4  aaaex  59 [3:0]  $end
$var wire    4  aaaey  60 [3:0]  $end
$var wire    4  aaaez  61 [3:0]  $end
$var wire    4  aaafa  62 [3:0]  $end
$var wire    4  aaafb  63 [3:0]  $end
$upscope $end
$scope module m_bc $end
$var wire    4  aaabx  data [3:0]  $end
$var wire    1  aaaby  valid       $end
$var wire    1  aaabz  ready       $end
$upscope $end
$scope module m_blk_start $end
$var wire    1  aaaca  data       $end
$var wire    1  aaacb  valid       $end
$var wire    1  aaacc  ready       $end
$upscope $end
$scope module m_block $end
$var wire   64  aaacd  0 [63:0]  $end
$var wire   64  aaace  1 [63:0]  $end
$var wire   64  aaacf  2 [63:0]  $end
$var wire   64  aaacg  3 [63:0]  $end
$var wire    1  aaach  valid       $end
$var wire    1  aaaci  ready       $end
$upscope $end
$scope module s_bp $end
$var wire    8  aaabu  data [7:0]  $end
$var wire    1  aaabv  valid       $end
$var wire    1  aaabw  ready       $end
$upscope $end
$upscope $end
$scope module u_decode_stream $end
$var wire   16  aaaaf  s_minbits [15:0]  $end
$var wire   16  aaaag  s_maxbits [15:0]  $end
$var wire   16  aaaah  s_maxprec [15:0]  $end
$var wire   16  aaaai  s_minexp [15:0]  $end
$var wire    6  aaabi  c_wordoff [5:0]  $end
$var wire   16  aaabj  c_rembits [15:0]  $end
$var wire    1  aaabs  csync       $end
$var wire    1  aaabt  skpbts       $end
$scope module b_c0 $end
$var wire    1  aaaba  f       $end
$var wire   32  aaabb  w [31:0]  $end
$upscope $end
$scope module b_c1 $end
$var wire    1  aaabc  f       $end
$var wire   32  aaabd  w [31:0]  $end
$upscope $end
$scope module b_c2 $end
$var wire    1  aaabe  f       $end
$var wire   32  aaabf  w [31:0]  $end
$upscope $end
$scope module b_c3 $end
$var wire    1  aaabg  f       $end
$var wire   32  aaabh  w [31:0]  $end
$upscope $end
$scope module m_bhdr $end
$var wire    1  aaaao  valid       $end
$var wire    1  aaaap  ready       $end
$scope module data $end
$var wire    1  aaaam  zb       $end
$var wire   11  aaaan  exp [10:0]  $end
$upscope $end
$upscope $end
$scope module m_bp $end
$var wire    8  aaaaj  data [7:0]  $end
$var wire    1  aaaak  valid       $end
$var wire    1  aaaal  ready       $end
$upscope $end
$scope module s_bc $end
$var wire    4  aaaaq  data [3:0]  $end
$var wire    1  aaaar  valid       $end
$var wire    1  aaaas  ready       $end
$upscope $end
$scope module s_bits $end
$var wire    1  aaaav  valid       $end
$var wire    1  aaaaw  ready       $end
$scope module data $end
$var wire   64  aaaat  tdata [63:0]  $end
$var wire    1  aaaau  tlast       $end
$upscope $end
$upscope $end
$scope module s_blk_start $end
$var wire    1  aaaax  data       $end
$var wire    1  aaaay  valid       $end
$var wire    1  aaaaz  ready       $end
$upscope $end
$scope module u_bfifo $end
$scope module m_port $end
$var wire    1  aaabq  valid       $end
$var wire    1  aaabr  ready       $end
$scope module data $end
$var wire   64  aaabo  tdata [63:0]  $end
$var wire    1  aaabp  tlast       $end
$upscope $end
$upscope $end
$scope module s_port $end
$var wire    1  aaabm  valid       $end
$var wire    1  aaabn  ready       $end
$scope module data $end
$var wire   64  aaabk  tdata [63:0]  $end
$var wire    1  aaabl  tlast       $end
$upscope $end
$upscope $end
$upscope $end
$upscope $end
$scope module u_inv_cast $end
$var wire    1  aaahe  got_bhdr       $end
$var wire    1  aaahf  got_blk       $end
$var wire   11  aaahg  r_ex [10:0]  $end
$var wire    1  aaahh  zb       $end
$var wire   64  aaahi  s_block0 [63:0]  $end
$var wire   64  aaahj  s_block1 [63:0]  $end
$var wire   64  aaahk  s_block2 [63:0]  $end
$var wire   64  aaahl  s_block3 [63:0]  $end
$var wire    1  aaahm  s_valid       $end
$var wire    1  aaahn  s_ready       $end
$var wire    1  aaaht  c_sync       $end
$var wire    2  aaahu  count [1:0]  $end
$scope module m_stream $end
$var wire    1  aaahr  valid       $end
$var wire    1  aaahs  ready       $end
$scope module data $end
$var wire   52  aaaho  frac [51:0]  $end
$var wire   11  aaahp  expo [10:0]  $end
$var wire    1  aaahq  sign       $end
$upscope $end
$upscope $end
$scope module s_bhdr $end
$var wire    1  aaahc  valid       $end
$var wire    1  aaahd  ready       $end
$scope module data $end
$var wire    1  aaaha  zb       $end
$var wire   11  aaahb  exp [10:0]  $end
$upscope $end
$upscope $end
$upscope $end
$upscope $end
$scope module decode_full_tb_driver $end
$var wire    1  aaahv  clk       $end
$var wire    1  aaahw  reset       $end
$var wire   16  aaahx  s_maxbits [15:0]  $end
$var wire   16  aaahy  s_maxprec [15:0]  $end
$var wire   16  aaahz  s_minbits [15:0]  $end
$var wire   16  aaaia  s_minexp [15:0]  $end
$scope module m_stream $end
$var wire    1  aaaii  valid       $end
$var wire    1  aaaij  ready       $end
$scope module data $end
$var wire   52  aaaif  frac [51:0]  $end
$var wire   11  aaaig  expo [10:0]  $end
$var wire    1  aaaih  sign       $end
$upscope $end
$upscope $end
$scope module s_bits $end
$var wire    1  aaaid  valid       $end
$var wire    1  aaaie  ready       $end
$scope module data $end
$var wire   64  aaaib  tdata [63:0]  $end
$var wire    1  aaaic  tlast       $end
$upscope $end
$upscope $end
$upscope $end
$scope module u_pulse $end
$var wire    1  aaaac  sig       $end
$var wire    2  aaaad  st [1:0]  $end
$var wire    8  aaaae  count [7:0]  $end
$upscope $end
$upscope $end
$enddefinitions  $end

$comment
All initial values are dumped below at time 0 sec = 0 timescale units.
$end

$dumpvars
1aaaaa
0aaaab
0aaaac
b10 aaaad
b1 aaaae
b1000000 aaaaf
b1000000 aaaag
b1000000 aaaah
b1111101111001110 aaaai
b0 aaaaj
0aaaak
0aaaal
0aaaam
b0 aaaan
0aaaao
1aaaap
b0 aaaaq
0aaaar
0aaaas
b0 aaaat
0aaaau
0aaaav
1aaaaw
1aaaax
1aaaay
0aaaaz
0aaaba
b0 aaabb
0aaabc
b0 aaabd
0aaabe
b0 aaabf
0aaabg
b0 aaabh
b0 aaabi
b0 aaabj
b0 aaabk
0aaabl
0aaabm
1aaabn
b0 aaabo
0aaabp
0aaabq
0aaabr
1aaabs
0aaabt
b0 aaabu
0aaabv
0aaabw
b0 aaabx
0aaaby
0aaabz
1aaaca
1aaacb
0aaacc
b0 aaacd
b0 aaace
b0 aaacf
b0 aaacg
0aaach
1aaaci
b111111 aaacj
b1000000 aaack
b0 aaacl
b0 aaacm
b11111111111111111111111111110100 aaacn
b0 aaaco
b0 aaacp
b0 aaacq
b0 aaacr
b0 aaacs
b0 aaact
b0 aaacu
b0 aaacv
b0 aaacw
b0 aaacx
b0 aaacy
b0 aaacz
b0 aaada
b0 aaadb
b0 aaadc
b0 aaadd
b0 aaade
b0 aaadf
b0 aaadg
b0 aaadh
b0 aaadi
b0 aaadj
b0 aaadk
b0 aaadl
b0 aaadm
b0 aaadn
b0 aaado
b0 aaadp
b0 aaadq
b0 aaadr
b0 aaads
b0 aaadt
b0 aaadu
b0 aaadv
b0 aaadw
b0 aaadx
b0 aaady
b0 aaadz
b0 aaaea
b0 aaaeb
b0 aaaec
b0 aaaed
b0 aaaee
b0 aaaef
b0 aaaeg
b0 aaaeh
b0 aaaei
b0 aaaej
b0 aaaek
b0 aaael
b0 aaaem
b0 aaaen
b0 aaaeo
b0 aaaep
b0 aaaeq
b0 aaaer
b0 aaaes
b0 aaaet
b0 aaaeu
b0 aaaev
b0 aaaew
b0 aaaex
b0 aaaey
b0 aaaez
b0 aaafa
b0 aaafb
b0 aaafc
b0 aaafd
b0 aaafe
b0 aaaff
0aaafg
1aaafh
b0 aaafi
b0 aaafj
b0 aaafk
b0 aaafl
0aaafm
1aaafn
b0 aaafo
b0 aaafp
b0 aaafq
b0 aaafr
0aaafs
1aaaft
b0 aaafu
b0 aaafv
b0 aaafw
b0 aaafx
0aaafy
1aaafz
0aaaga
b0 aaagb
b0 aaagc
b0 aaagd
b0 aaage
0aaagf
1aaagg
b0 aaagh
b0 aaagi
b0 aaagj
b0 aaagk
0aaagl
1aaagm
b0 aaagn
b0 aaago
b0 aaagp
b0 aaagq
b0 aaagr
0aaags
1aaagt
b0 aaagu
b0 aaagv
b0 aaagw
b0 aaagx
0aaagy
0aaagz
0aaaha
b0 aaahb
0aaahc
0aaahd
0aaahe
0aaahf
b0 aaahg
0aaahh
b0 aaahi
b0 aaahj
b0 aaahk
b0 aaahl
0aaahm
0aaahn
b0 aaaho
b0 aaahp
0aaahq
0aaahr
1aaahs
0aaaht
b0 aaahu
1aaahv
0aaahw
b1000000 aaahx
b1000000 aaahy
b1000000 aaahz
b1111101111001110 aaaia
b0 aaaib
0aaaic
0aaaid
1aaaie
b0 aaaif
b0 aaaig
0aaaih
0aaaii
1aaaij
$end

#5
0aaaaa
0aaahv

#10
1aaaaa
b0 aaaae
b110100 aaacn
1aaahv

#15
0aaaaa
0aaahv

#20
1aaaaa
1aaaab
1aaaac
b11 aaaad
1aaahv
1aaahw

#25
0aaaaa
1aaabr
0aaahv

#30
1aaaaa
1aaaal
1aaaar
b100111100101110111000100100100111000000101001110110100000001101 aaaat
1aaaav
b100111100101110111000100100100111000000101001110110100000001101 aaabk
1aaabm
1aaabw
1aaaby
1aaahv
b100111100101110111000100100100111000000101001110110100000001101 aaaib
1aaaid

#35
0aaaaa
0aaahv

#40
1aaaaa
b1000100110011101000001010101110000010011011100010110100000010001 aaaat
b1000100110011101000001010101110000010011011100010110100000010001 aaabk
b100111100101110111000100100100111000000101001110110100000001101 aaabo
1aaabq
1aaahv
b1000100110011101000001010101110000010011011100010110100000010001 aaaib

#45
0aaaaa
1aaaba
b11000000101001110110100000001101 aaabb
1aaabc
b1001111001011101110001001001001 aaabd
0aaabs
0aaahv

#50
1aaaaa
b100000000100011011001111010001001000011011100010110100000010011 aaaat
b100000000100011011001111010001001000011011100010110100000010011 aaabk
b1000100110011101000001010101110000010011011100010110100000010001 aaabo
1aaahv
b100000000100011011001111010001001000011011100010110100000010011 aaaib

#55
0aaaaa
b1110110 aaaaj
1aaaak
b111 aaaan
1aaaao
1aaaas
1aaaaz
1aaabe
b10011011100010110100000010001 aaabf
1aaabg
b10001001100111010000010101011100 aaabh
b1100 aaabi
b110100 aaabj
0aaabr
b1110110 aaabu
1aaabv
1aaabz
1aaacc
b0 aaack
0aaahv

#60
1aaaaa
b1 aaaaq
b1010101001010000011001111011011001000011011101010110100000010011 aaaat
0aaaax
0aaaay
b1010101001010000011001111011011001000011011101010110100000010011 aaabk
b1 aaabx
0aaaca
0aaacb
b111110 aaacj
b1110110 aaacm
b110011 aaacn
b1 aaaco
b111 aaahb
1aaahc
1aaahv
b1010101001010000011001111011011001000011011101010110100000010011 aaaib

#65
0aaaaa
b111011 aaaaj
0aaaao
0aaaaz
b1101 aaabi
b110011 aaabj
b111011 aaabu
0aaacc
0aaahv

#70
1aaaaa
b11 aaaaq
b11000000000101011110000000110100010111000000010110100000010101 aaaat
b11000000000101011110000000110100010111000000010110100000010101 aaabk
b11 aaabx
b100000000000000000000000000000000000000000000000000000000000000 aaacd
b111101 aaacj
b1 aaacl
b111011 aaacm
b110000 aaacn
b11 aaaco
b1 aaacp
b1 aaafa
b100000000000000000000000000000000000000000000000000000000000000 aaafc
1aaahd
1aaahe
b111 aaahg
1aaahv
b11000000000101011110000000110100010111000000010110100000010101 aaaib

#75
0aaaaa
b10100111 aaaaj
b10000 aaabi
b110000 aaabj
b10100111 aaabu
0aaahv

#80
1aaaaa
b100 aaaaq
b1111110001010111011000100010010110010110000101010110100000010101 aaaat
0aaaaw
b1111110001010111011000100010010110010110000101010110100000010101 aaabk
0aaabn
b100 aaabx
b110000000000000000000000000000000000000000000000000000000000000 aaacd
b10000000000000000000000000000000000000000000000000000000000000 aaace
b111100 aaacj
b10 aaacl
b10100111 aaacm
b101100 aaacn
b100 aaaco
b11 aaacp
b11 aaaez
b110000000000000000000000000000000000000000000000000000000000000 aaafc
b10000000000000000000000000000000000000000000000000000000000000 aaafd
b0 aaahb
0aaahc
0aaahd
1aaahv
b1111110001010111011000100010010110010110000101010110100000010101 aaaib
0aaaie

#85
0aaaaa
b1010 aaaaj
b10100 aaabi
b101100 aaabj
b1010 aaabu
0aaahv

#90
1aaaaa
b11 aaaaq
b11 aaabx
b11000000000000000000000000000000000000000000000000000000000000 aaace
b111011 aaacj
b1010 aaacm
b101001 aaacn
b11 aaaco
b10 aaacp
b10 aaaey
b11000000000000000000000000000000000000000000000000000000000000 aaafd
1aaahv

#95
0aaaaa
b10000001 aaaaj
b10111 aaabi
b101001 aaabj
b10000001 aaabu
0aaahv

#100
1aaaaa
b110100000000000000000000000000000000000000000000000000000000000 aaacd
b111010 aaacj
b10000001 aaacm
b100110 aaacn
b1 aaacp
b1 aaaex
b110100000000000000000000000000000000000000000000000000000000000 aaafc
1aaahv

#105
0aaaaa
b1110000 aaaaj
b11010 aaabi
b100110 aaabj
b1110000 aaabu
0aaahv

#110
1aaaaa
b111001 aaacj
b1110000 aaacm
b100011 aaacn
b0 aaacp
1aaahv

#115
0aaaaa
b1001110 aaaaj
b11101 aaabi
b100011 aaabj
b1001110 aaabu
0aaahv

#120
1aaaaa
b101 aaaaq
b101 aaabx
b11001000000000000000000000000000000000000000000000000000000000 aaace
b1000000000000000000000000000000000000000000000000000000000 aaacf
b111000 aaacj
b11 aaacl
b1001110 aaacm
b11110 aaacn
b101 aaaco
b110 aaacp
b110 aaaev
b11001000000000000000000000000000000000000000000000000000000000 aaafd
b1000000000000000000000000000000000000000000000000000000000 aaafe
1aaahv

#125
0aaaaa
b10010010 aaaaj
b1001111001011101110001001001001 aaabb
b10011011100010110100000010001 aaabd
b10001001100111010000010101011100 aaabf
0aaabg
b0 aaabh
b10 aaabi
b11110 aaabj
b10010010 aaabu
0aaahv

#130
1aaaaa
b100 aaaaq
b100 aaabx
b11001100000000000000000000000000000000000000000000000000000000 aaace
b110111 aaacj
b10010010 aaacm
b11010 aaacn
b100 aaaco
b10 aaacp
b10 aaaeu
b11001100000000000000000000000000000000000000000000000000000000 aaafd
1aaahv

#135
0aaaaa
b10001001 aaaaj
b110 aaabi
b11010 aaabj
b10001001 aaabu
0aaahv

#140
1aaaaa
b110100010000000000000000000000000000000000000000000000000000000 aaacd
b10000000000000000000000000000000000000000000000000000000 aaacg
b110110 aaacj
b100 aaacl
b10001001 aaacm
b10110 aaacn
b1001 aaacp
b1001 aaaet
b110100010000000000000000000000000000000000000000000000000000000 aaafc
b10000000000000000000000000000000000000000000000000000000 aaaff
1aaahv

#145
0aaaaa
b10111000 aaaaj
b1010 aaabi
b10110 aaabj
b10111000 aaabu
0aaahv

#150
1aaaaa
b11000000000000000000000000000000000000000000000000000000 aaacg
b110101 aaacj
b10111000 aaacm
b10010 aaacn
b1000 aaacp
b1000 aaaes
b11000000000000000000000000000000000000000000000000000000 aaaff
1aaahv

#155
0aaaaa
b10111011 aaaaj
b1110 aaabi
b10010 aaabj
b10111011 aaabu
0aaahv

#160
1aaaaa
b110100010100000000000000000000000000000000000000000000000000000 aaacd
b11001100100000000000000000000000000000000000000000000000000000 aaace
b11100000000000000000000000000000000000000000000000000000 aaacg
b110100 aaacj
b10111011 aaacm
b1110 aaacn
b1011 aaacp
b1011 aaaer
b110100010100000000000000000000000000000000000000000000000000000 aaafc
b11001100100000000000000000000000000000000000000000000000000000 aaafd
b11100000000000000000000000000000000000000000000000000000 aaaff
1aaahv

#165
0aaaaa
b11001011 aaaaj
b10010 aaabi
b1110 aaabj
b11001011 aaabu
0aaahv

#170
1aaaaa
b110100010110000000000000000000000000000000000000000000000000000 aaacd
b11001100110000000000000000000000000000000000000000000000000000 aaace
b11110000000000000000000000000000000000000000000000000000 aaacg
b110011 aaacj
b11001011 aaacm
b1010 aaacn
b1011 aaaeq
b110100010110000000000000000000000000000000000000000000000000000 aaafc
b11001100110000000000000000000000000000000000000000000000000000 aaafd
b11110000000000000000000000000000000000000000000000000000 aaaff
1aaahv

#175
0aaaaa
b111100 aaaaj
b10110 aaabi
b1010 aaabj
b111100 aaabu
0aaahv

#180
1aaaaa
b1000001000000000000000000000000000000000000000000000000000 aaacf
b11111000000000000000000000000000000000000000000000000000 aaacg
b110010 aaacj
b111100 aaacm
b110 aaacn
b1100 aaacp
b1100 aaaep
b1000001000000000000000000000000000000000000000000000000000 aaafe
b11111000000000000000000000000000000000000000000000000000 aaaff
1aaahv

#185
0aaaaa
b1010011 aaaaj
b11010 aaabi
b110 aaabj
b1010011 aaabu
0aaahv

#190
1aaaaa
b110100010110100000000000000000000000000000000000000000000000000 aaacd
b11001100110100000000000000000000000000000000000000000000000000 aaace
b110001 aaacj
b1010011 aaacm
b10 aaacn
b11 aaacp
b11 aaaeo
b110100010110100000000000000000000000000000000000000000000000000 aaafc
b11001100110100000000000000000000000000000000000000000000000000 aaafd
1aaahv

#195
0aaaaa
b1000101 aaaaj
b11110 aaabi
b10 aaabj
b1000101 aaabu
0aaahv

#200
1aaaaa
b10 aaaaq
1aaaax
1aaaay
b10 aaabx
1aaaca
1aaacb
b110100010110110000000000000000000000000000000000000000000000000 aaacd
1aaach
b111111 aaacj
b0 aaacl
b1000101 aaacm
b110100 aaacn
b10 aaaco
b1 aaacp
b1 aaaen
b110100010110110000000000000000000000000000000000000000000000000 aaafc
1aaafg
1aaahv

#205
0aaaaa
b10110 aaaaj
b1001 aaaan
1aaaao
1aaaaz
b10011011100010110100000010001 aaabb
b10001001100111010000010101011100 aaabd
0aaabe
b0 aaabf
b1100 aaabi
b110100 aaabj
1aaabr
b10110 aaabu
1aaacc
0aaahv

#210
1aaaaa
b1 aaaaq
1aaaaw
0aaaax
0aaaay
1aaabn
b100000000100011011001111010001001000011011100010110100000010011 aaabo
b1 aaabx
0aaaca
0aaacb
b0 aaacd
b0 aaace
b0 aaacf
b0 aaacg
0aaach
b111110 aaacj
b10110 aaacm
b110011 aaacn
b1 aaaco
b0 aaacp
b0 aaaen
b0 aaaeo
b0 aaaep
b0 aaaeq
b0 aaaer
b0 aaaes
b0 aaaet
b0 aaaeu
b0 aaaev
b0 aaaex
b0 aaaey
b0 aaaez
b0 aaafa
b0 aaafc
b0 aaafd
b0 aaafe
b0 aaaff
0aaafg
b110100010110110000000000000000000000000000000000000000000000000 aaafi
b11001100110100000000000000000000000000000000000000000000000000 aaafj
b1000001000000000000000000000000000000000000000000000000000 aaafk
b11111000000000000000000000000000000000000000000000000000 aaafl
1aaafm
b110100010110110000000000000000000000000000000000000000000000000 aaafo
b11001100110100000000000000000000000000000000000000000000000000 aaafp
b1000001000000000000000000000000000000000000000000000000000 aaafq
b11111000000000000000000000000000000000000000000000000000 aaafr
1aaafs
b1001 aaahb
1aaahc
1aaahv
1aaaie

#215
0aaaaa
b10001011 aaaaj
0aaaao
0aaaaz
1aaabe
b1000011011100010110100000010011 aaabf
1aaabg
b1000000001000110110011110100010 aaabh
b1101 aaabi
b110011 aaabj
0aaabr
b10001011 aaabu
0aaacc
0aaahv

#220
1aaaaa
b11 aaaaq
b11001001110101011010000100010110010111010001010110100000010101 aaaat
0aaaaw
b11001001110101011010000100010110010111010001010110100000010101 aaabk
0aaabn
b11 aaabx
b100000000000000000000000000000000000000000000000000000000000000 aaacd
b111101 aaacj
b1 aaacl
b10001011 aaacm
b110000 aaacn
b11 aaaco
b1 aaacp
b1 aaafa
b100000000000000000000000000000000000000000000000000000000000000 aaafc
b0 aaafi
b0 aaafj
b0 aaafk
b0 aaafl
0aaafm
b0 aaafo
b0 aaafp
b0 aaafq
b0 aaafr
0aaafs
b1011101110010000000000000000000000000000000000000000000000000 aaagb
b1110111011110100000000000000000000000000000000000000000000000000 aaagc
b1111110111111000000000000000000000000000000000000000000000000000 aaagd
b1111111110101000000000000000000000000000000000000000000000000000 aaage
1aaagf
1aaahv
b11001001110101011010000100010110010111010001010110100000010101 aaaib
0aaaie

#225
0aaaaa
b1110001 aaaaj
b10000 aaabi
b110000 aaabj
b1110001 aaabu
0aaahv

#230
1aaaaa
b10 aaaaq
b10 aaabx
b110000000000000000000000000000000000000000000000000000000000000 aaacd
b111100 aaacj
b1110001 aaacm
b101110 aaacn
b10 aaaco
b1 aaaez
b110000000000000000000000000000000000000000000000000000000000000 aaafc
b0 aaagb
b0 aaagc
b0 aaagd
b0 aaage
0aaagf
b1 aaagn
1aaahv

#235
0aaaaa
b11011100 aaaaj
b10010 aaabi
b101110 aaabj
b11011100 aaabu
0aaahv

#240
1aaaaa
b111011 aaacj
b11011100 aaacm
b101100 aaacn
b0 aaacp
b10 aaagn
1aaahv

#245
0aaaaa
b110111 aaaaj
b10100 aaabi
b101100 aaabj
b110111 aaabu
0aaahv

#250
1aaaaa
b100 aaaaq
b100 aaabx
b110100000000000000000000000000000000000000000000000000000000000 aaacd
b100000000000000000000000000000000000000000000000000000000000 aaace
b111010 aaacj
b10 aaacl
b110111 aaacm
b101000 aaacn
b100 aaaco
b11 aaacp
b11 aaaex
b110100000000000000000000000000000000000000000000000000000000000 aaafc
b100000000000000000000000000000000000000000000000000000000000 aaafd
b100 aaagn
1aaahv

#255
0aaaaa
b10011 aaaaj
b11000 aaabi
b101000 aaabj
b10011 aaabu
0aaahv

#260
1aaaaa
b11 aaaaq
b11 aaabx
b110110000000000000000000000000000000000000000000000000000000000 aaacd
b110000000000000000000000000000000000000000000000000000000000 aaace
b111001 aaacj
b10011 aaacm
b100101 aaacn
b11 aaaco
b11 aaaew
b110110000000000000000000000000000000000000000000000000000000000 aaafc
b110000000000000000000000000000000000000000000000000000000000 aaafd
b1000 aaagn
1aaahv

#265
0aaaaa
b10000010 aaaaj
b11011 aaabi
b100101 aaabj
b10000010 aaabu
0aaahv

#270
1aaaaa
b111000000000000000000000000000000000000000000000000000000000 aaace
b111000 aaacj
b10000010 aaacm
b100010 aaacn
b10 aaacp
b10 aaaev
b111000000000000000000000000000000000000000000000000000000000 aaafd
b10000 aaagn
1aaahv

#275
0aaaaa
b1110000 aaaaj
b11110 aaabi
b100010 aaabj
b1110000 aaabu
0aaahv

#280
1aaaaa
b110111 aaacj
b1110000 aaacm
b11111 aaacn
b0 aaacp
b1111111111111110000000000000000000000000000000000000000000000000 aaafu
b110001110110000000000000000000000000000000000000000000000000 aaafv
b1111001011110000000000000000000000000000000000000000000000000 aaafw
b11001011110110000000000000000000000000000000000000000000000000 aaafx
1aaafy
1aaaga
b1111111111111110000000000000000000000000000000000000000000000000 aaagh
b110001110110000000000000000000000000000000000000000000000000 aaagi
b1111001011110000000000000000000000000000000000000000000000000 aaagj
b11001011110110000000000000000000000000000000000000000000000000 aaagk
1aaagl
b100000 aaagn
b1111111111111110000000000000000000000000000000000000000000000000 aaago
b110001110110000000000000000000000000000000000000000000000000 aaagp
b1111001011110000000000000000000000000000000000000000000000000 aaagq
b11001011110110000000000000000000000000000000000000000000000000 aaagr
1aaags
1aaahv

#285
0aaaaa
b10101110 aaaaj
b10001001100111010000010101011100 aaabb
b1000011011100010110100000010011 aaabd
b1000000001000110110011110100010 aaabf
0aaabg
b0 aaabh
b1 aaabi
b11111 aaabj
b10101110 aaabu
0aaahv

